{
  "info": "Sample JSON output from our service",
  "elements": [
    {
      "name": "first",
      "type": "server",
      "ip": 7175
    },
    {
      "name": "second",
      "type": "proxy",
      "ip": "71.78.22.43"
    }
  ]
}
